{
  "title":"Free Music Archive - Albums",
  "message":"",
  "errors":[
    
  ],
  "total":"10538",
  "total_pages":2108,
  "page":1,
  "limit":"5",
  "dataset":[
    {
      "album_id":"7596",
      "album_title":"!!! - Live @ KEXP 7\/24\/2010",
      "album_handle":"_-_Live__KEXP_7242010",
      "album_url":"http:\/\/freemusicarchive.org\/music\/___\/_-_Live__KEXP_7242010\/",
      "album_type":"Live Performance",
      "artist_name":"!!!",
      "artist_url":"http:\/\/freemusicarchive.org\/music\/___\/",
      "album_producer":null,
      "album_engineer":null,
      "album_information":"<p>Funk-punk party starters !!! performs live at KEXP\u2019s \u201cBean Room\u201d stage during our broadcast at the Capitol Hill Block Party 2010.\u00a0\u00a0\u00a0 <br \/><\/p>",
      "album_date_released":null,
      "album_comments":"0",
      "album_favorites":"0",
      "album_tracks":"2",
      "album_listens":"2576",
      "album_date_created":"10\/22\/2010 03:39:09 PM",
      "album_image_file":"http:\/\/freemusicarchive.org\/file\/images\/albums\/_-_Live__KEXP_7242010_-_20101022181252833.jpg",
      "album_images":[
        {
          "image_id":"10574",
          "user_id":null,
          "artist_id":null,
          "album_id":"7596",
          "curator_id":null,
          "image_file":"http:\/\/freemusicarchive.org\/file\/images\/albums\/_-_Live__KEXP_7242010_-_20101022181252833.jpg",
          "image_title":"albums Image",
          "image_caption":null,
          "image_copyright":null,
          "image_source":null,
          "image_order":"0"
        }
      ],
      "tags":[
        
      ]
    },
    {
      "album_id":"10620",
      "album_title":"\"...Through The Cracks\" Mix Vol. 1",
      "album_handle":"Through_The_Cracks_Mix_Vol_1",
      "album_url":"http:\/\/freemusicarchive.org\/music\/The_Yes_Sirs\/Through_The_Cracks_Mix_Vol_1\/",
      "album_type":"Album",
      "artist_name":"The Yes Sirs",
      "artist_url":"http:\/\/freemusicarchive.org\/music\/The_Yes_Sirs\/",
      "album_producer":null,
      "album_engineer":null,
      "album_information":"<p>Tracks from us and our friends that never really got a proper release, so we gave away this internet-only collection of demos, lost tracks, etc.<\/p>",
      "album_date_released":null,
      "album_comments":"0",
      "album_favorites":"0",
      "album_tracks":"4",
      "album_listens":"1249",
      "album_date_created":"12\/18\/2011 06:34:55 PM",
      "album_image_file":"http:\/\/freemusicarchive.org\/file\/images\/albums\/The_Yes_Sirs_-_Album_Title_-_20111218183001853.png",
      "album_images":[
        {
          "image_id":"16848",
          "user_id":null,
          "artist_id":null,
          "album_id":"10620",
          "curator_id":null,
          "image_file":"http:\/\/freemusicarchive.org\/file\/images\/albums\/The_Yes_Sirs_-_Album_Title_-_20111218183001853.png",
          "image_title":"Album Image: Album Title",
          "image_caption":"\"...Through The Cracks\" Mix Vol. 1",
          "image_copyright":"2011",
          "image_source":"http:\/\/cnproachmotel.blogspot.com",
          "image_order":"0"
        }
      ],
      "tags":[
        
      ]
    },
    {
      "album_id":"10625",
      "album_title":"\"...Through The Cracks\" Mix Vol. 1",
      "album_handle":"Through_The_Cracks_Mix_Vol_1_1279",
      "album_url":"http:\/\/freemusicarchive.org\/music\/Secret_Dick\/Through_The_Cracks_Mix_Vol_1_1279\/",
      "album_type":"Album",
      "artist_name":"Secret Dick",
      "artist_url":"http:\/\/freemusicarchive.org\/music\/Secret_Dick\/",
      "album_producer":null,
      "album_engineer":null,
      "album_information":null,
      "album_date_released":null,
      "album_comments":"0",
      "album_favorites":"0",
      "album_tracks":"1",
      "album_listens":"906",
      "album_date_created":"12\/18\/2011 07:27:16 PM",
      "album_image_file":"http:\/\/freemusicarchive.org\/file\/images\/albums\/Secret_Dick_-_Through_The_Cracks_Mix_Vol_1_-_20111218192323301.png",
      "album_images":[
        {
          "image_id":"16853",
          "user_id":null,
          "artist_id":null,
          "album_id":"10625",
          "curator_id":null,
          "image_file":"http:\/\/freemusicarchive.org\/file\/images\/albums\/Secret_Dick_-_Through_The_Cracks_Mix_Vol_1_-_20111218192323301.png",
          "image_title":"Album Image: \"...Through The Cracks\" Mix Vol. 1",
          "image_caption":"\"...Through The Cracks\" Mix Vol. 1",
          "image_copyright":"2011",
          "image_source":"http:\/\/cnproachmotel.blogspot.com",
          "image_order":"0"
        }
      ],
      "tags":[
        
      ]
    },
    {
      "album_id":"12717",
      "album_title":"\"32 Ford\"",
      "album_handle":"32_Ford",
      "album_url":"http:\/\/freemusicarchive.org\/music\/Joe_Mazzola\/32_Ford\/",
      "album_type":"Album",
      "artist_name":"Joe Mazzola",
      "artist_url":"http:\/\/freemusicarchive.org\/music\/Joe_Mazzola\/",
      "album_producer":null,
      "album_engineer":null,
      "album_information":"<p>For more info and free music by Joe Mazzola, click the link below!<\/p>\n<p><a title=\"http:\/\/beehiverecording.com\/arist.aspx?id=1034\" href=\"http:\/\/beehiverecording.com\/arist.aspx?id=1034\" target=\"_blank\">http:\/\/beehiverecording.com\/arist.aspx?id=1034<\/a><\/p>",
      "album_date_released":null,
      "album_comments":"0",
      "album_favorites":"2",
      "album_tracks":"1",
      "album_listens":"7463",
      "album_date_created":"10\/23\/2012 09:31:22 PM",
      "album_image_file":"http:\/\/freemusicarchive.org\/file\/images\/albums\/Joe_Mazzola_-_32_Ford_-_20121023222706108.jpg",
      "album_images":[
        {
          "image_id":"17102",
          "image_file":"http:\/\/freemusicarchive.org\/file\/images\/artists\/Full_Frontal_-_20120109123843963.jpg",
          "image_title":"artists Image",
          "image_caption":null,
          "image_copyright":null,
          "image_source":"http:\/\/a3.ec-images.myspacecdn.com\/images01\/59\/e5c5863d82eaca16ed6c1326fe083161\/l.gif"
        }
      ],
      "tags":[
        
      ]
    },
    {
      "album_id":"12708",
      "album_title":"\"A.B.A.Y.A.M\"",
      "album_handle":"ABAYAM",
      "album_url":"http:\/\/freemusicarchive.org\/music\/Gardens\/ABAYAM\/",
      "album_type":"Album",
      "artist_name":"Gardens",
      "artist_url":"http:\/\/freemusicarchive.org\/music\/Gardens\/",
      "album_producer":null,
      "album_engineer":null,
      "album_information":"<p><a title=\"http:\/\/beehiverecording.com\/arist.aspx?id=1025\" href=\"http:\/\/beehiverecording.com\/arist.aspx?id=1025\" target=\"_blank\">More info and free music from Gardens at Beehive<\/a><\/p>",
      "album_date_released":null,
      "album_comments":"0",
      "album_favorites":"0",
      "album_tracks":"1",
      "album_listens":"2325",
      "album_date_created":"10\/23\/2012 07:08:18 PM",
      "album_image_file":"http:\/\/freemusicarchive.org\/file\/images\/albums\/Gardens_-_ABAYAM_-_20121023200712318.png",
      "album_images":[
        {
          "image_id":"17089",
          "image_file":"http:\/\/freemusicarchive.org\/file\/images\/artists\/Jason_Kao_Hwangs_Spontaneous_River_-_20120109102933324.jpeg",
          "image_title":"Artist Image: Jason Kao Hwang's Spontaneous River",
          "image_caption":null,
          "image_copyright":null,
          "image_source":null
        }
      ],
      "tags":[
        
      ]
    }
  ]
}
